Reproducible Research Course Project 1
…
##      steps                date          interval     
##  Min.   :  0.00   2012-10-01:  288   Min.   :   0.0  
##  1st Qu.:  0.00   2012-10-02:  288   1st Qu.: 588.8  
##  Median :  0.00   2012-10-03:  288   Median :1177.5  
##  Mean   : 37.38   2012-10-04:  288   Mean   :1177.5  
##  3rd Qu.: 12.00   2012-10-05:  288   3rd Qu.:1766.2  
##  Max.   :806.00   2012-10-06:  288   Max.   :2355.0  
##  NA's   :2304     (Other)   :15840

2. Histogram of the total number of steps taken each day

#calculating the number of steps taken
steps <- pamdd %>% filter(!is.na(steps)) %>% group_by(date) %>% summarize(steps = sum(steps)) %>% print

## # A tibble: 53 x 2
##          date steps
##        <fctr> <int>
##  1 2012-10-02   126
##  2 2012-10-03 11352
##  3 2012-10-04 12116
##  4 2012-10-05 13294
##  5 2012-10-06 15420
##  6 2012-10-07 11015
##  7 2012-10-09 12811
##  8 2012-10-10  9900
##  9 2012-10-11 10304
## 10 2012-10-12 17382
## # ... with 43 more rows
…
Calculating the number of steps taken in each 5-minute interval per day

new_steps <- new_data %>%
  filter(!is.na(steps)) %>%
  group_by(date) %>%
  summarize(steps = sum(steps)) %>%
  print

## # A tibble: 61 x 2
##          date    steps
##        <fctr>    <dbl>
##  1 2012-10-01 10766.19
##  2 2012-10-02   126.00
##  3 2012-10-03 11352.00
##  4 2012-10-04 12116.00
##  5 2012-10-05 13294.00
##  6 2012-10-06 15420.00
##  7 2012-10-07 11015.00
##  8 2012-10-08 10766.19
##  9 2012-10-09 12811.00
## 10 2012-10-10  9900.00
## # ... with 51 more rows
…
